
fylker = {
'F': 'Finnmark',
'T': 'Troms',
'N': 'Nordland',
'NT': 'Nord-Trøndelag',
'ST': 'Sør-Trøndelag',
'M': 'Møre og Romsdal',
'SF': 'Sogn og Fjordane',
'H': 'Hordaland',
'R': 'Rogaland',
'VA': 'Vest-Agder',
'AA': 'Aust-Agder',
'TK': 'Telemark',
'V': 'Vestfold',
'BD': 'Buskerud',
'OP': 'Oppland',
'HE': 'Hedmark',
'O': 'Oslo',
'A': 'Akershus',
'Ø': 'Østfold'
}


Kommuner = {
'I' : 'Ibestad',
'K' : 'Karlsøy',
'KF' : 'Kvæfjord',
'KN' : 'Kvænangen',
'KD' : 'Kåfjord',
'LV' : 'Lavangen',
'LK' : 'Lenvik',
'L' : 'Lyngen',
'MV' : 'Målselv',
'N' : 'Nordreisa',
'SL' : 'Salangen',
'S' : 'Skjervøy',
'SK' : 'Skånland',
'SD' : 'Storfjord',
'SA' : 'Sørreisa',
'TK' : 'Torsken',
'TN' : 'Tranøy',
'T' : 'Tromsø',
'AH' : 'Alstahaug',
'A' : 'Andøy',
'BG' : 'Ballangen',
'BA' : 'Beiarn',
'BL' : 'Bindal',
'B' : 'Bodø',
'BR' : 'Brønnøy',
'BØ' : 'Bø I Nordland',
'DA' : 'Dønna',
'E' : 'Evenes',
'FE' : 'Fauske',
'F' : 'Flakstad',
'G' : 'Gildeskål',
'H' : 'Hadsel',
'HM' : 'Hamarøy',
'HS' : 'Hemnes',
'HR' : 'Herøy I Nordland',
'LF' : 'Leirfjord',
'L' : 'Lurøy',
'LN' : 'Lødingen',
'ME' : 'Meløy',
'MS' : 'Moskenes',
'N' : 'Narvik',
'NA' : 'Nesna',
'RA' : 'Rana',
'R' : 'Rødøy',
'RT' : 'Røst',
'SL' : 'Saltdal',
'SD' : 'Skjerstad',
'SO' : 'Sortland',
'SG' : 'Steigen',
'SA' : 'Sømna',
'SF' : 'Sørfold',
'TS' : 'Tjeldsund',
'TN' : 'Træna',
'TF' : 'Tysfjord',
'VN' : 'Vefsn',
'VA' : 'Vega',
'VV' : 'Vestvågøy',
'VS' : 'Vevelstad',
'V' : 'Vågan',
'VR' : 'Værøy',
'Ø' : 'Øksnes',
'F' : 'Flatanger',
'FS' : 'Fosnes',
'FA' : 'Frosta',
'I' : 'Inderøy',
'LA' : 'Leka',
'LV' : 'Leksvik',
'L' : 'Levanger',
'MV' : 'Mosvik',
'NL' : 'Namdalseid',
'N' : 'Namsos',
'NR' : 'Nærøy',
'S' : 'Steinkjer',
'SD' : 'Stjørdal',
'VL' : 'Verdal',
'VN' : 'Verran',
'V' : 'Vikna',
'A' : 'Agdenes',
'B' : 'Bjugn',
'F' : 'Frøya',
'HE' : 'Hemne',
'H' : 'Hitra',
'OL' : 'Orkdal',
'O' : 'Osen',
'RS' : 'Rissa',
'R' : 'Roan',
'SK' : 'Skaun',
'SI' : 'Snillfjord',
'T' : 'Trondheim',
'AA' : 'Åfjord',
'Ø' : 'Ørland',
'AK' : 'Aukra',
'AE' : 'Aure',
'AV' : 'Averøy',
'EE' : 'Eide',
'FI' : 'Frei',
'F' : 'Fræna',
'G' : 'Giske',
'GS' : 'Gjemnes',
'HS' : 'Halsa',
'H' : 'Haram',
'HD' : 'Hareid',
'HØ' : 'Herøy I Møre Og Romsdal',
'K' : 'Kristiansund',
'MD' : 'Midsund',
'M' : 'Molde',
'N' : 'Nesset',
'NL' : 'Norddal',
'RA' : 'Rauma',
'S' : 'Sande I Møre Og Romsdal',
'SØ' : 'Sandøy',
'SJ' : 'Skodje',
'SM' : 'Smøla',
'SL' : 'Stordal',
'ST' : 'Stranda',
'SA' : 'Sula',
'SU' : 'Sunndal',
'SR' : 'Surnadal',
'SK' : 'Sykkylven',
'TV' : 'Tingvoll',
'T' : 'Tustna',
'U' : 'Ulstein',
'VN' : 'Vanylven',
'VS' : 'Vestnes',
'VA' : 'Volda',
'A' : 'Ålesund',
'ØG' : 'Ørskog',
'VD' : 'Ørsta',
'A' : 'Askvoll',
'AD' : 'Aurland',
'BS' : 'Balestrand',
'B' : 'Bremanger',
'E' : 'Eid',
'FL' : 'Fjaler',
'F' : 'Flora',
'FD' : 'Førde',
'GR' : 'Gaular',
'GP' : 'Gloppen',
'G' : 'Gulen',
'H' : 'Hyllestad',
'HØ' : 'Høyanger',
'L' : 'Leikanger',
'LL' : 'Lærdal',
'N' : 'Naustdal',
'S' : 'Selje',
'SD' : 'Sogndal',
'SU' : 'Solund',
'VK' : 'Vik',
'V' : 'Vågsøy',
'A' : 'Askøy',
'AV' : 'Austevoll',
'AM' : 'Austrheim',
'BN' : 'Bergen',
'B' : 'Bømlo',
'EF' : 'Eidfjord',
'E' : 'Etne',
'FE' : 'Fedje',
'FJ' : 'Fitjar',
'F' : 'Fjell',
'FS' : 'Fusa',
'G' : 'Granvin',
'J' : 'Jondal',
'KM' : 'Kvam',
'K' : 'Kvinnherad',
'L' : 'Lindås',
'MF' : 'Masfjorden',
'ML' : 'Meland',
'MD' : 'Modalen',
'OA' : 'Odda',
'O' : 'Os I Hordaland',
'OR' : 'Osterøy',
'R' : 'Radøy',
'SR' : 'Samnanger',
'SD' : 'Stord',
'S' : 'Sund',
'SO' : 'Sveio',
'T' : 'Tysnes',
'U' : 'Ullensvang',
'UK' : 'Ulvik',
'V' : 'Vaksdal',
'ØN' : 'Øygarden',
'B' : 'Bokn',
'ES' : 'Eigersund',
'F' : 'Finnøy',
'FD' : 'Forsand',
'G' : 'Gjesdal',
'H' : 'Haugesund',
'HM' : 'Hjelmeland',
'HA' : 'Hå',
'K' : 'Karmøy',
'KP' : 'Klepp',
'KV' : 'Kvitsøy',
'RB' : 'Randaberg',
'R' : 'Rennesøy',
'SS' : 'Sandnes',
'SA' : 'Sauda',
'SK' : 'Sokndal',
'SO' : 'Sola',
'S' : 'Stavanger',
'ST' : 'Strand',
'SD' : 'Suldal',
'TV' : 'Tysvær',
'U' : 'Utsira',
'V' : 'Vindafjord',
'Ø' : 'Ølen',
'FS' : 'Farsund',
'F' : 'Flekkefjord',
'K' : 'Kristiansand',
'KL' : 'Kvinesdal',
'LS' : 'Lindesnes',
'LD' : 'Lyngdal',
'M' : 'Mandal',
'S' : 'Søgne',
'A' : 'Arendal',
'G' : 'Grimstad',
'L' : 'Lillesand',
'R' : 'Risør',
'T' : 'Tvedestrand',
'BL' : 'Bamble',
'K' : 'Kragerø',
'P' : 'Porsgrunn',
'BR' : 'Borre',
'HS' : 'Holmestrand',
'L' : 'Larvik',
'N' : 'Nøtterøy',
'SD' : 'Sande I Vestfold',
'S' : 'Sandefjord',
'SK' : 'Stokke',
'TM' : 'Tjøme',
'T' : 'Tønsberg',
'D' : 'Drammen',
'H' : 'Hurum',
'R' : 'Røyken',
'EI' : 'Eidskog',
'H' : 'Hamar',
'K' : 'Kongsvinger',
'L' : 'Løten',
'N' : 'Nord-Odal',
'RI' : 'Ringsaker',
'S' : 'Stange',
'SO' : 'Sør-Odal',
'O' : 'Oslo',
'AS' : 'Asker',
'B' : 'Bærum',
'F' : 'Frogn',
'N' : 'Nesodden',
'O' : 'Oppegård',
'V' : 'Vestby',
'F' : 'Fredrikstad',
'HD' : 'Halden',
'H' : 'Hvaler',
'M' : 'Moss',
'R' : 'Rygge',
'RD' : 'Råde',
'S' : 'Sarpsborg' 
}